gt pizza
…
.panel1-the_chunk-auto[

```r
library(tidyverse)
library(paletteer)
library(gt)
*pizzaplace
```
]
 
.panel2-the_chunk-auto[

```
# A tibble: 49,574 x 7
   id          date       time     name        size  type    price
   <chr>       <chr>      <chr>    <chr>       <chr> <chr>   <dbl>
 1 2015-000001 2015-01-01 11:38:36 hawaiian    M     classic  13.2
 2 2015-000002 2015-01-01 11:57:40 classic_dlx M     classic  16  
 3 2015-000002 2015-01-01 11:57:40 mexicana    M     veggie   16  
 4 2015-000002 2015-01-01 11:57:40 thai_ckn    L     chicken  20.8
 5 2015-000002 2015-01-01 11:57:40 five_cheese L     veggie   18.5
 6 2015-000002 2015-01-01 11:57:40 ital_supr   L     supreme  20.8
 7 2015-000003 2015-01-01 12:12:28 prsc_argla  L     supreme  20.8
 8 2015-000003 2015-01-01 12:12:28 ital_supr   M     supreme  16.5
 9 2015-000004 2015-01-01 12:16:31 ital_supr   M     supreme  16.5
10 2015-000005 2015-01-01 12:21:30 ital_supr   M     supreme  16.5
# … with 49,564 more rows
```
…
.panel2-the_chunk-auto[

```
# A tibble: 49,574 x 7
   id        date     time   name     size  type                           price
   <chr>     <chr>    <chr>  <chr>    <chr> <chr>                          <dbl>
 1 2015-000… 2015-01… 11:38… hawaiian M     classic (classical pizzas)      13.2
 2 2015-000… 2015-01… 11:57… classic… M     classic (classical pizzas)      16  
 3 2015-000… 2015-01… 11:57… mexicana M     chicken (pizzas without any m…  16  
 4 2015-000… 2015-01… 11:57… thai_ckn L     chicken (pizzas with chicken …  20.8
 5 2015-000… 2015-01… 11:57… five_ch… L     chicken (pizzas without any m…  18.5
 6 2015-000… 2015-01… 11:57… ital_su… L     supreme (pizzas that try a li…  20.8
 7 2015-000… 2015-01… 12:12… prsc_ar… L     supreme (pizzas that try a li…  20.8
 8 2015-000… 2015-01… 12:12… ital_su… M     supreme (pizzas that try a li…  16.5
 9 2015-000… 2015-01… 12:16… ital_su… M     supreme (pizzas that try a li…  16.5
10 2015-000… 2015-01… 12:21… ital_su… M     supreme (pizzas that try a li…  16.5
# … with 49,564 more rows
```
…
.panel2-the_chunk-auto[

```
# A tibble: 49,574 x 7
   id        date     time   name     size  type                           price
   <chr>     <chr>    <chr>  <chr>    <fct> <chr>                          <dbl>
 1 2015-000… 2015-01… 11:38… hawaiian M     classic (classical pizzas)      13.2
 2 2015-000… 2015-01… 11:57… classic… M     classic (classical pizzas)      16  
 3 2015-000… 2015-01… 11:57… mexicana M     chicken (pizzas without any m…  16  
 4 2015-000… 2015-01… 11:57… thai_ckn L     chicken (pizzas with chicken …  20.8
 5 2015-000… 2015-01… 11:57… five_ch… L     chicken (pizzas without any m…  18.5
 6 2015-000… 2015-01… 11:57… ital_su… L     supreme (pizzas that try a li…  20.8
 7 2015-000… 2015-01… 12:12… prsc_ar… L     supreme (pizzas that try a li…  20.8
 8 2015-000… 2015-01… 12:12… ital_su… M     supreme (pizzas that try a li…  16.5
 9 2015-000… 2015-01… 12:16… ital_su… M     supreme (pizzas that try a li…  16.5
10 2015-000… 2015-01… 12:21… ital_su… M     supreme (pizzas that try a li…  16.5
# … with 49,564 more rows
```
…
.panel2-the_chunk-auto[

```
# A tibble: 49,574 x 7
# Groups:   type, size [14]
   id        date     time   name     size  type                           price
   <chr>     <chr>    <chr>  <chr>    <fct> <chr>                          <dbl>
 1 2015-000… 2015-01… 11:38… hawaiian M     classic (classical pizzas)      13.2
 2 2015-000… 2015-01… 11:57… classic… M     classic (classical pizzas)      16  
 3 2015-000… 2015-01… 11:57… mexicana M     chicken (pizzas without any m…  16  
 4 2015-000… 2015-01… 11:57… thai_ckn L     chicken (pizzas with chicken …  20.8
 5 2015-000… 2015-01… 11:57… five_ch… L     chicken (pizzas without any m…  18.5
 6 2015-000… 2015-01… 11:57… ital_su… L     supreme (pizzas that try a li…  20.8
 7 2015-000… 2015-01… 12:12… prsc_ar… L     supreme (pizzas that try a li…  20.8
 8 2015-000… 2015-01… 12:12… ital_su… M     supreme (pizzas that try a li…  16.5
 9 2015-000… 2015-01… 12:16… ital_su… M     supreme (pizzas that try a li…  16.5
10 2015-000… 2015-01… 12:21… ital_su… M     supreme (pizzas that try a li…  16.5
# … with 49,564 more rows
```
…
