hux large
…
---
count: false

.panel1-the_chunk-auto[

```r
iris %>%
* group_by(Species)
```
]
 
.panel2-the_chunk-auto[

```
## # A tibble: 150 x 5
## # Groups:   Species [3]
##    Sepal.Length Sepal.Width Petal.Length Petal.Width Species
##           <dbl>       <dbl>        <dbl>       <dbl> <fct>  
##  1          5.1         3.5          1.4         0.2 setosa 
##  2          4.9         3            1.4         0.2 setosa 
##  3          4.7         3.2          1.3         0.2 setosa 
##  4          4.6         3.1          1.5         0.2 setosa 
##  5          5           3.6          1.4         0.2 setosa 
##  6          5.4         3.9          1.7         0.4 setosa 
##  7          4.6         3.4          1.4         0.3 setosa 
##  8          5           3.4          1.5         0.2 setosa 
##  9          4.4         2.9          1.4         0.2 setosa 
## 10          4.9         3.1          1.5         0.1 setosa 
## #  with 140 more rows
```
…
.panel1-the_chunk-auto[

```r
iris %>%
  group_by(Species) %>%
* select(Species, Sepal.Length, Sepal.Width,
*            Petal.Length, Petal.Width)
```
]
 
.panel2-the_chunk-auto[

```
## # A tibble: 150 x 5
## # Groups:   Species [3]
##    Species Sepal.Length Sepal.Width Petal.Length Petal.Width
##    <fct>          <dbl>       <dbl>        <dbl>       <dbl>
##  1 setosa           5.1         3.5          1.4         0.2
##  2 setosa           4.9         3            1.4         0.2
##  3 setosa           4.7         3.2          1.3         0.2
##  4 setosa           4.6         3.1          1.5         0.2
##  5 setosa           5           3.6          1.4         0.2
##  6 setosa           5.4         3.9          1.7         0.4
##  7 setosa           4.6         3.4          1.4         0.3
##  8 setosa           5           3.4          1.5         0.2
##  9 setosa           4.4         2.9          1.4         0.2
## 10 setosa           4.9         3.1          1.5         0.1
## #  with 140 more rows
```
…
