named colors_colorful
…
the_colors %>%
  matrix(ncol = num_columns, byrow = F, ) %>%
* as_tibble()
```
]
 
.panel2-the_chunk-auto[

```
# A tibble: 64 x 7
   V1           V2        V3        V4            V5             V6    V7       
   <chr>        <chr>     <chr>     <chr>         <chr>          <chr> <chr>    
 1 white        cornsilk2 dodgerbl… lightblue3    mediumorchid4  pink  slategra…
 2 aliceblue    cornsilk3 dodgerbl… lightblue4    mediumpurple   pink1 slategra…
 3 antiquewhite cornsilk4 dodgerbl… lightcoral    mediumpurple1  pink2 slategra…
 4 antiquewhit… cyan      dodgerbl… lightcyan     mediumpurple2  pink3 slategra…
 5 antiquewhit… cyan1     firebrick lightcyan1    mediumpurple3  pink4 slategrey
 6 antiquewhit… cyan2     firebric… lightcyan2    mediumpurple4  plum  snow     
 7 antiquewhit… cyan3     firebric… lightcyan3    mediumseagreen plum1 snow1    
 8 aquamarine   cyan4     firebric… lightcyan4    mediumslatebl… plum2 snow2    
 9 aquamarine1  darkblue  firebric… lightgoldenr… mediumspringg… plum3 snow3    
10 aquamarine2  darkcyan  floralwh… lightgoldenr… mediumturquoi… plum4 snow4    
# … with 54 more rows
```
…
the_colors %>%
  matrix(ncol = num_columns, byrow = F, ) %>%
  as_tibble() %>%
* mutate_at(.vars = 1:num_columns,
*           funs(factor(.,
*                       levels =
*                         rev(the_colors),
*                       ordered = T)))
```
]
 
.panel2-the_chunk-auto[

```
# A tibble: 64 x 7
   V1           V2        V3        V4            V5             V6    V7       
   <ord>        <ord>     <ord>     <ord>         <ord>          <ord> <ord>    
 1 white        cornsilk2 dodgerbl… lightblue3    mediumorchid4  pink  slategra…
 2 aliceblue    cornsilk3 dodgerbl… lightblue4    mediumpurple   pink1 slategra…
 3 antiquewhite cornsilk4 dodgerbl… lightcoral    mediumpurple1  pink2 slategra…
 4 antiquewhit… cyan      dodgerbl… lightcyan     mediumpurple2  pink3 slategra…
 5 antiquewhit… cyan1     firebrick lightcyan1    mediumpurple3  pink4 slategrey
 6 antiquewhit… cyan2     firebric… lightcyan2    mediumpurple4  plum  snow     
 7 antiquewhit… cyan3     firebric… lightcyan3    mediumseagreen plum1 snow1    
 8 aquamarine   cyan4     firebric… lightcyan4    mediumslatebl… plum2 snow2    
 9 aquamarine1  darkblue  firebric… lightgoldenr… mediumspringg… plum3 snow3    
10 aquamarine2  darkcyan  floralwh… lightgoldenr… mediumturquoi… plum4 snow4    
# … with 54 more rows
```
…
